https://zonedns.vn/acp
pass: 3Z%rYuE%HLR8YgF

WEB4S V3
103.28.36.34	root	810v75UzCK9YvJIokh	58986	/dev/vda2       295G  250G   30G  90% /
103.28.36.54	root	2D!Q*Z*hoVD@sr8d	58986	/dev/simfs      384G   87G  275G  24% /
103.28.36.89	root	4UBt3bt&4Xkg!#%U	58986	/dev/vda2       196G  125G   62G  67% /
103.28.36.97	root	x42E!MwGzqVC@r8!	58986	/dev/simfs      459G   61G  375G  15% /
103.28.36.188	root	L2qX&4PHjki&Ybni	58986	/dev/vda2       245G  149G   84G  64% /
103.28.36.208	root	pg9MzJ&%^bre$QdT	58986	/dev/vda1       148G   83G   59G  59% /
103.28.36.209	root	V2GrTDn%ULV#E6cr	58986	/dev/vda2       147G   76G   64G  55% /
103.101.161.181	root	zVAgvEE&6S8&$ZKR	58986	/dev/vda1       147G   99G   42G  71% /
103.28.36.188 / L2qX&4PHjki&Ybni


- http://web07.nhanhoa.com/@DevMyAdmin/    103.28.36.89
root | 9N1kzu4T9Q%Iq9bF

- http://web09.nhanhoa.com/@DevMyAdmin/    103.28.36.54	
root | HE!7mtKz2bPmM6o9

- http://web11.nhanhoa.com/@DevMyAdmin/    103.28.36.208
root | 2RhGF44b997p4GRu

- http://web19.nhanhoa.com/@DevMyAdmin/    103.28.36.97
root | Hb2DDYLm^tS!x2

- http://103.28.36.34/@DevMyAdmin/              	
root | bEu*Bd9p4M73

Khach
103.101.162.81	root	k5uqCECUsW#d	58986    Gb&4y5gjS7N$s*S3

WEB4S V4

http://103.28.38.130/phpmyadmin

45.117.80.43 K3d2j6RQI9QnoGE9 admin/R8qv3d9pYpQ5nb1e root/E4gKNYUpp99CFfWX	
45.117.80.25 	root 	L4muKslK8mlvaew1  	22 	admin/M4s9lkFUWuZUbYkX 	root/G0l3Yaiug3287JcH	
45.117.81.119	root	C9lXgraU0t2bRTIA	22 admin/S9pUJsurq8g8SW6C mysql/root/E3aJ9iTgb0MwUAhT	
103.28.36.37            Y2by2XAtGBCFaAJn    admin/ W1vj2JV6jN5d05Ko root/R4jfMnxH50WPyIuW
103.28.38.130   root    C8usNA3h46tvsZJV    22 admin/ K6t92pNIQz2nWvmH root/Y8oGtIZik52Tj4O0

103.101.160.151	root	D%2D3RYQ!3&k7nhK	58986

103.28.36.80	root	Quz7cjKa6#Y^SH6x	58986
103.28.36.80	root / T2bloA07Ja0f6RUN 22 admin/N7uvApaWymm87uRr root/A9u2fn7w5IGBeiKf
45.117.82.136	root	xXg^ycfS4bidVQ%z	58986	

45.117.81.213	root	Ng@UwzC#YeU$8^H4	58986	
103.28.38.185	root	&zQY7&#rdsY&d8ZN	58986	

45.117.80.64 root/T2bloA07Ja0f6RUN 22 admin N7uvApaWymm87uRr root/A9u2fn7w5IGBeiKf (103.28.36.80)


45.117.80.43 K3d2j6RQI9QnoGE9 admin/R8qv3d9pYpQ5nb1e root/E4gKNYUpp99CFfWX

103.101.162.196 J9nM5sZULOISJzKh admin/ F5eEY3SuTMjZ6pWs root/D1jwaw8OYutESaQ2

103.101.160.58 J9nM5sZULOISJzKh admin/ F5eEY3SuTMjZ6pWs root/D1jwaw8OYutESaQ2

45.117.80.142	root	x4HMg*V#coBy$!&x	58986


I. THÔNG TIN QUẢN TRỊ SERVER

IP Public: 103.159.50.106

1. Thông tin remote desktop/ssh quản trị server

Username: root
Password: Zg1kieetN6Vzl8v
2. Thông tin quản trị Direct Admin

Địa chỉ: http://103.159.50.106:2222
Username: admin
Password: C2lkzoN920gYlBr2
3. Thông tin quản trị MySql

Username: root
Password: Q2xwyXzoNwOdHP4M


WEB4S V5
103.124.95.15	root	RUskxsUXG39%XRj!	58986	admin / 3BtkgT*@GKPmd!xA
103.124.95.17	root	Z2iHQRmHYb#5j%hb	58986	admin / S#TP!a@U78iW$s7v
103.124.95.31	root	Cs82!tALR%ctFxtu	58986	admin /J$Y9Upz&h%PF9qKU
103.124.95.34	root	374^%SEAegdvZHep 	58986	admin  / Z1iSQJ0lIdwqaLXp
103.179.191.40 	root 	SkcpKLdBe!A3%@AU 	admin / gXaHqMy7Tea@Xa*2
103.170.123.140 root 	Z@xdb7!D!uRtCvS6    admin / HoyR%@ebxXkR7M
103.170.122.206	root	Q2eZOInPtl6mNc1M	22	admin / B3srdj6NdSuidl8m  mysql/R0zhcqoNWLvtxtm9
103.159.50.242	root	A7nQshmH1mvRQryU	22	admin / E6g7dlwnWWXD3gpG  mysql/N8czaUTbpN0jLiRV


103.176.179.90_CDN_DEMO_TEMPLATE	root	M4lOgRHnYMicVF9u	22	admin / O9kpW8ft6lKBeX1k  mysql/L8avDvF6IyiyocPy

45.117.80.43 K3d2j6RQI9QnoGE9 admin/R8qv3d9pYpQ5nb1e root/E4gKNYUpp99CFfWX

103.101.161.56 root G1fLk9x0WC3EM4Id /admin S9dKhl44Gqg9eXa7 / root S0zzc4DAfsamjmG9

======================== Server CDN 04
103.101.161.56
SSH: root   G1fLk9x0WC3EM4Id
Direct Admin: admin   S9dKhl44Gqg9eXa7
http://103.101.161.56:2222
MySql: 

--------

103.124.94.36 root / Bp4E2UDSrjbmh42  và admin / P7hS7NlKpBSjzWBZ

ls -alh | awk '{print $9}' > 36188.txt


103.101.162.81 / k5uqCECUsW#d port 58986 anh nhé
dongmynghe.com.vn

Em gửi lại thông tin của 4 VPS yêu cầu
1. IP Public: 103.124.95.15
1. Thông tin remote desktop/ssh quản trị server

Username: root
Password: N9patzcuObzTKAA0   Km55H7wllAFaLAM
2. Thông tin quản trị Direct Admin

Địa chỉ: http://103.124.95.15:2222
Username: admin
Password: V5mD4VW6t7MWoelj
3. Thông tin quản trị MySql

Username: root
Password: B9wDemIUyDzzHA0B


#### CDN
2. IP Public: 103.124.95.34

1. Thông tin remote desktop/ssh quản trị server

Username: root
Password: Z9j9fRsWwzHcMspq
2. Thông tin quản trị Direct Admin

Địa chỉ: http://103.124.95.34:2222
Username: admin
Password: Z1iSQJ0lIdwqaLXp
3. Thông tin quản trị MySql

Username: root
Password: H6sY1AYCNLNKTAw3


#### DEMO
4. IP Public: 103.124.95.17

1. Thông tin remote desktop/ssh quản trị server

Username: root
Password: M6kdw4UJ3YZGKFqk
2. Thông tin quản trị Direct Admin

Địa chỉ: http://103.124.95.17:2222
Username: admin
Password: N9eX2nqrmjvJ1C0c
3. Thông tin quản trị MySql

Username: root
Password: K3kXfcRbTuavjFpE
4. IP Public: 103.124.95.31
1. Thông tin remote desktop/ssh quản trị server

Username: root
Password: G9qXizVwS1nyBnBg
2. Thông tin quản trị Direct Admin

Địa chỉ: http://103.124.95.31:2222
Username: admin
Password: G9oOgQPZAiHTlpNZ
3. Thông tin quản trị MySql

Username: root
Password: E9kwJUGPxHVYq6ek




#### 9TECH

1. Info server chứa ảnh: (lưu ý network con này hôm nay có dấu hiệu bì down, cần giám sát).
IP: 45.117.82.170
Pass root: a&YQYw5dTuQi
Port: 6111

2. Info VPS chứa web 9tech.com.vn
IP: 171.244.27.149
Pass root: (@gbM/C483]c
Port: 58689

techvn_admin / l2kbkyPkz




admin: misspho1
Password: M1SSph01

misspho_comau / nwZkbtM3S

Link Panel: http://misspho.com.au:2222
Username: misspho
Password: 2813smep4o3zxfp1b16c


### App dago
https://xd.adobe.com/view/8a8ca6ba-a44e-4566-93d7-27ce4f8972a9-dfdf/


103.159.51.74
Administrator / F2cIXVL0ZP9QaLje




803 004 427
Admin@12345



2. Tài khoản trang developer (Tích hợp API):
- link:https://developer.sms.fpt.net/my-app
- user: 9tech.vn
- mật khẩu: D!6HXe&#d3



Căn cứ vào hợp đồng số < CTR754709>

Chúng tôi đã tiến hành triển khai cài đặt server theo cấu hình trong hợp đồng như sau:

I. THÔNG TIN QUẢN TRỊ SERVER

IP Public: 103.124.92.20

1. Thông tin remote desktop/ssh quản trị server

Username: root
Password: P1rMMHrBhKpikjuO
2. Thông tin quản trị Direct Admin

Địa chỉ: http://103.124.92.20:2222
Username: admin
Password: I9enn99GXsOBn8Ds
3. Thông tin quản trị MySql

Username: root
Password: L2bndgqWgHcGuR4y




* Thông tin quản trị chuyển dữ liệu
IP Public: 103.170.122.41

1. Thông tin remote desktop/ssh quản trị server

Username: root
Password: N1eHAbn8woFfm31P
2. Thông tin quản trị Direct Admin

Địa chỉ: http://103.170.122.41:2222
Username: admin
Password: E9h2UDWIYFcYiiKb
3. Thông tin quản trị MySql

Username: root
Password: F1eVcqyv0uViMUjS


Địa chỉ: http://45.117.81.195:2222
Username: admin
Password: R2hPdWi9gDW9uEG8




http://210.211.119.244:3333/
Tài khoản : alddesig
Mật khẩu : K3a!43SHr8u*tM




#### DEMO WORDPRESS
I. THÔNG TIN QUẢN TRỊ SERVER

    IP Public: 103.124.95.89

1. Thông tin remote desktop/ssh quản trị server

    Username: root
    Password: K6jhOGRAPTNk0zZT

2. Thông tin quản trị Direct Admin

    Địa chỉ: http://103.124.95.89:2222
    Username: admin
    Password: J6csZuStoSlzxahk

3. Thông tin quản trị OpenLiteSpeed

    Địa chỉ: https://103.124.95.89:7080
    Username: admin
    Password: G8qMXZtdTRMKZlea

4. Thông tin quản trị MySql

    Username: root
    Password: L7vdQGY8bYpomcJd
	
	
############
suckhoehocduongvietnam.com
103.176.179.98 C4sjyFU6lGjQXe5q
mysql C4sjyFU6lGjQXe5q



##############
112.213.87.183
User: root
Password: JV2YToy8tARt

user=da_admin
passwd=rbL2Id8PgDY=

mysql> set global sql_mode='STRICT_TRANS_TABLES,NO_ZERO_IN_DATE,NO_ZERO_DATE,ERROR_FOR_DIVISION_BY_ZERO,NO_AUTO_CREATE_USER,NO_ENGINE_SUBSTITUTION';
mysql> set session sql_mode='STRICT_TRANS_TABLES,NO_ZERO_IN_DATE,NO_ZERO_DATE,ERROR_FOR_DIVISION_BY_ZERO,NO_AUTO_CREATE_USER,NO_ENGINE_SUBSTITUTION';
mysql> exit;


I. THÔNG TIN QUẢN TRỊ SERVER

IP Public: 103.179.190.155

1. Thông tin remote desktop/ssh quản trị server

Username: root
Password: U9jjSLZSqI2nHiYj
2. Thông tin quản trị Direct Admin

Địa chỉ: http://103.179.190.155:2222
Username: admin
Password: A7uV84wHBxbwPt1k
3. Thông tin quản trị MySql

Username: root
Password: K7ybY4uE49NCY1PC

admin_phutungmitsubishivn / JxyefGk55R

https://docs.google.com/document/d/19Vp5tfShy2vSaxFYByzKiS5FqT88ODmPp_EFZaQaOy8/edit



I. THÔNG TIN QUẢN TRỊ SERVER

Server name: CTR844971

IP Public: 103.176.179.189

1. Thông tin remote desktop/ssh quản trị server

Username: root
Password: Y5jLm9tfB65LEpUZ
2. Thông tin quản trị Direct Admin

Địa chỉ: http://103.176.179.189:2222
Username: admin
Password: Z5z9gluBx3np60DV
3. Thông tin quản trị MySql

Username: root
Password: H7sDTXSef3oOUO8G



IP Public: 103.179.190.210

1. Thông tin remote desktop/ssh quản trị server

Username: root
Password: Q0w2Jt8aJ52DLDPT

2. Thông tin quản trị Direct Admin

Địa chỉ: http://103.179.190.210:2222
Username: admin
Password: V1v7imzSSEsUWcLq

3. Thông tin quản trị MySql

Username: root
Password: V3oy4opSlXkm6bNd



admin_khongkhixanhvn  AW5eYCm1Z



ftp : 210.245.85.37
user : dongphongvina_dongphongvina
passwd : eekJWAk8hyzFVnzy

db 

user : dongphongvina_db

passwd : eekJWAk8hyzFVnzy


https://210.245.85.37:8083

admin / MgthtnPt123@

/home/dongphongvina/web/dongphongvina.com/public_html/



IP Public: 103.176.179.227

1. Thông tin remote desktop/ssh quản trị server

Username: root
Password: W6vUyyF2GhHUhjx9

2. Thông tin quản trị Direct Admin

Địa chỉ: http://103.176.179.227:2222
Username: admin
Password: X2iQVMUdhw6aBKSw

3. Thông tin quản trị MySql

Username: root
Password: G6wOs8woOUnaPbtq




1. Thông tin trang quản trị admin:	https://admin.umail.vn/login	Username:	no-reply@web4s.vn
Password:	xyUDCr8ZuD
2. Đường dẫn Webmail:	https://mail.umail.vn		
Username:	no-reply@web4s.vn
Username:	
Password:	xyUDCr8ZuD



I. THÔNG TIN QUẢN TRỊ SERVER

Server name: CTR844971

IP Public: 103.176.179.189

1. Thông tin remote desktop/ssh quản trị server

Username: root
Password: Y5jLm9tfB65LEpUZ
2. Thông tin quản trị Direct Admin

Địa chỉ: http://103.176.179.189:2222
Username: admin
Password: Z5z9gluBx3np60DV
3. Thông tin quản trị MySql

Username: root
Password: H7sDTXSef3oOUO8G


A17 Tạ Quang Bửu bách khoa em
+84 33 9902 519
Vinh nhé



Tên miền: 7slaw.vn
Mật khẩu Domain: 7TUhjw23jJ7z3nA
Liên kết đăng nhập: https://zonedns.vn


Tk root
IP: 45.77.172.149
port: 22
Pass: Qq(5A5cBVU.{ACY}
cái này phải đăng nhập vs SSH
các công cụ VPS ở trong đó đều có hết


---------------------------------------------------------------
* Domain                     : 7slaw.vn
* DB_Name                    : pwz_7slawvnefd1
* DB_User                    : 7slawvnefd1_pwz
* DB_Password                : g8gHjsLV3p2R2VyN
* Username (FTP)             : 7slawvnEfD1
* Password (FTP)             : PzB5dggP84xKmCUl
* FTP Host                   : 45.77.172.149
* FTP Port                   : 21
* Public_html                : /home/7slawvnEfD1/7slaw.vn/public_html


* Domain                     : media.7slaw.vn
* Username (FTP)             : media7sJD45
* Password (FTP)             : 2Rthrj8xGXJ7g
* FTP Host                   : 45.77.172.149
* FTP Port                   : 21
* Public_html                : /home/media7sJD45/media.7slaw.vn/public_html



IP Public: 103.179.191.40

1. Thông tin remote desktop/ssh quản trị server

Username: root
Password: S2bkhaZQkj5GIwg3

2. Thông tin quản trị Direct Admin

Địa chỉ: http://103.179.191.40:2222
Username: admin
Password: Z3uzCqVW5bkjMNgj

3. Thông tin quản trị MySql

Username: root
Password: L7j6HYgg0cGgDgFK




Thông tin VM như sau:
VM1:
HaCuong-Website: ssh root@103.149.170.3 -p 2243
Password: y8IU@6Ka$@38h4k
VM2:
HaCuong-WebDB: ssh root@103.149.170.3 -p 2244
Password: &8UgGj&4bX$vxoh


103.149.170.8 port 2202 y8IU@6Ka$@38h4k
103.149.170.35 port 2202 &8UgGj&4bX$vxoh

 https://www.hawkhost.com/
 
 
 
 I. Sever chạy CDN 103.179.191.167 (đã cài CentOS 7 - DirectAdmin -ngix_apache)
IP Public: 103.179.191.167

1. Thông tin remote desktop/ssh quản trị server

Username: root
Password: P8uFGbxmfEfEZNdz
2. Thông tin quản trị Direct Admin

Địa chỉ: http://103.179.191.167:2222
Username: admin
Password: S5hbiZcFbvdJ840r
3. Thông tin quản trị MySql

Username: root
Password: D8glEtfnTeCcAw2a


#### 112.213.87.183
aaPanel Internal Address: https://112.213.87.183:7800/5622d736
username: 2kntcanw
password: 3e602818

3. Thông tin SSH vào Cloud VPS
IP Cloud VPS: 112.213.87.183
SSH Port: 22
User: root
Password: 25PXMm8eR



Username	nhalotm3
Control panel	cPanel
Password	r~u]7uNT]u372$7
Control panel:
hxxps://103.28.36.108:2083

nhalotm3_tamoanhglasscom
nEBpRfr)d9W9



nhalotm3_alolockcom f5M5]^za)7{T


f%Lx:~Xa%:wx


https://192.168.2.101/
https://192.168.2.102/
https://192.168.2.103/



https://103.28.36.189:2083/
nhsaf6xo / ?#=,A85]]{3r2^9



SELECT a.full_name, a.phone FROM member a LEFT JOIN orders b on a.id = b.member_id where a.phone is not null and a.phone <> '' and b.id is null and a.shop_id = 27


SELECT CONVERT(a.full_name USING utf8), a.phone FROM member a LEFT JOIN orders b on a.id = b.member_id where a.phone is not null and a.phone <> '' and b.id is null and a.shop_id = 27



I. THÔNG TIN QUẢN TRỊ SERVER

IP Public: 103.170.123.140

1. Thông tin remote desktop/ssh quản trị server

Username: root
Password: Y9iG3DLLWHcvxK1R
2. Thông tin quản trị Direct Admin

Địa chỉ: http://103.170.123.140:2222
Username: admin
Password: V8vuW9vFSRnXlaJI
3. Thông tin quản trị MySql

Username: root
Password: E0lJGYIluJNBWaQN



WEB: https://ptxmkoman.vn/home
1. Tài khoản quản trị hosting và tên miền em báo kỹ thuật đã gửi vào mail của Anh.
2. Chuyển code website và app nâng cấp chạy trên 2 server riêng:
Thông tin 2 server riêng:
1. SERVER 1
I. THÔNG TIN QUẢN TRỊ SERVER
IP Public: 103.124.94.251

1. Thông tin remote desktop/ssh quản trị server

Username: root
Password: C2dKnmFRxeYpa3Qw
2. Thông tin quản trị Direct Admin

Địa chỉ: http://103.124.94.251:2222
Username: admin
Password: Y2c2seY9kAtvIrJd
3. Thông tin quản trị OpenLiteSpeed

Địa chỉ: https://103.124.94.251:7080
Username: admin
Password: E8idzdEWDkuUjhbJ
4. Thông tin quản trị MySql

Username: root
Password: X7pH5TgaRgj6EOoI
2. SERVER 2
I. THÔNG TIN QUẢN TRỊ SERVER
IP Public: 103.170.123.199

1. Thông tin remote desktop/ssh quản trị server

Username: root
Password: A8nbm7NMoG9C3L4T
2. Thông tin quản trị Direct Admin

Địa chỉ: http://103.170.123.199:2222
Username: admin
Password: O0mvqF8CTWMg1htE
3. Thông tin quản trị OpenLiteSpeed

Địa chỉ: https://103.170.123.199:7080
Username: admin
Password: W2pdvtGycEof4ol8
4. Thông tin quản trị MySql

Username: root
Password: M2iTXhKsdLKYC5Jg


### Serrver backup .58
Thông tin FTP
Host IP : 103.28.36.84
- Username : truongdv
- Password : TruongDV!@2023


### WhatsApp Cloud API
https://github.com/netflie/whatsapp-cloud-api

https://developers.facebook.com/docs/whatsapp/cloud-api



#### WORDPRESS
103.124.95.89
103.124.95.89 và 103.170.122.76 chạy cho dịch vụ wp



### goilinks.com
aapanel + credentials:
http://45.32.101.65:7800/c7dd70ed  
bunekeor  
6afcb727

45.32.101.65  22  root  q-6A$xC,$gg%gteV


==================================================================
hacuong.net   Congratulations! Installed successfully!
==================================================================
aaPanel Internet Address: https://103.149.170.8:7800/ecb6ab75
aaPanel Internal Address: https://10.10.20.43:7800/ecb6ab75
username: 6voqd7fv
password: 96118dea

==================================================================
hacuong.net    Congratulations! Installed successfully!
==================================================================
aaPanel Internet Address: https://103.149.170.35:7800/daa236ce
aaPanel Internal Address: https://10.10.20.44:7800/daa236ce
username: l00xxbts
password: e2cd34f3
Warning:
If you cannot access the panel, 
release the following port (7800|888|80|443|20|21) in the security group


web_hacuongnet / SRAEWYLejnin5jxJ



I. THÔNG TIN QUẢN TRỊ SERVER

IP Public: 103.159.50.242

1. Thông tin remote desktop/ssh quản trị server

Username: root
Password: A7nQshmH1mvRQryU
2. Thông tin quản trị Direct Admin

Địa chỉ: http://103.159.50.242:2222
Username: admin
Password: E6g7dlwnWWXD3gpG
3. Thông tin quản trị MySql

Username: root
Password: N8czaUTbpN0jLiRV



I. THÔNG TIN QUẢN TRỊ SERVER

IP Public: 103.170.122.162

1. Thông tin remote desktop/ssh quản trị server

Username: root
Password: Q2eZOInPtl6mNc1M
2. Thông tin quản trị Direct Admin

Địa chỉ: http://103.170.122.162:2222
Username: admin
Password: B3srdj6NdSuidl8m
3. Thông tin quản trị MySql

Username: root
Password: R0zhcqoNWLvtxtm9



I. THÔNG TIN QUẢN TRỊ SERVER

IP Public: 45.117.80.64

1. Thông tin remote desktop/ssh quản trị server

Username: root
Password: T2bloA07Ja0f6RUN
2. Thông tin quản trị Direct Admin

Địa chỉ: http://45.117.80.64:2222
Username: admin
Password: N7uvApaWymm87uRr
3. Thông tin quản trị MySql

Username: root
Password: A9u2fn7w5IGBeiKf


I. THÔNG TIN QUẢN TRỊ SERVER

IP Public: 103.170.122.86

1. Thông tin remote desktop/ssh quản trị server

Username: root
Password: E7cs4T2unW6utLQl
2. Thông tin quản trị Direct Admin

Địa chỉ: http://103.170.122.86:2222
Username: admin
Password: B0zcqNpCRUxcQ3l8
3. Thông tin quản trị MySql

Username: root
Password: K0y1a1jVpwMqr0A9


http://103.170.122.76:2222/
admin / U9e1V436po807O7Y

http://103.124.95.89:2222/
admin/J6csZuStoSlzxahk



### WORDPRESS

user: admin / pass; Admin@12345@#6

IP Public: 103.124.95.89

1. Thông tin remote desktop/ssh quản trị server

Username: root
Password: K6jhOGRAPTNk0zZT


IP Public: 103.170.122.76

1. Thông tin remote desktop/ssh quản trị server

Username: root
Password: Q5odvjrqw0WpI0aq